<svg id="Group_39" data-name="Group 39" xmlns="http://www.w3.org/2000/svg" width="35.797" height="35.797" viewBox="0 0 35.797 35.797">
  <g id="Group_28" data-name="Group 28" transform="translate(13.004 4.195)">
    <g id="Group_27" data-name="Group 27">
      <path id="Path_17" data-name="Path 17" d="M186.7,60a.7.7,0,1,0,.7.7A.7.7,0,0,0,186.7,60Z" transform="translate(-186 -60)" fill="#616161"/>
    </g>
  </g>
  <g id="Group_30" data-name="Group 30" transform="translate(15.756 5.593)">
    <g id="Group_29" data-name="Group 29">
      <path id="Path_18" data-name="Path 18" d="M227.5,84.195a.7.7,0,0,1,0-1.4,1.122,1.122,0,0,1,.756.365.7.7,0,1,0,.972-1,2.7,2.7,0,0,0-1.029-.644V80.7a.7.7,0,0,0-1.4,0v.819a2.1,2.1,0,0,0,.7,4.075.7.7,0,0,1,0,1.4,1.265,1.265,0,0,1-.908-.529.7.7,0,0,0-1.07.9,2.9,2.9,0,0,0,1.279.911v.816a.7.7,0,1,0,1.4,0V88.27a2.1,2.1,0,0,0-.7-4.075Z" transform="translate(-225.361 -80)" fill="#616161"/>
    </g>
  </g>
  <g id="Group_32" data-name="Group 32" transform="translate(20.416 10.208)">
    <g id="Group_31" data-name="Group 31">
      <path id="Path_19" data-name="Path 19" d="M304.585,146a2.8,2.8,0,0,0-2.8,2.8v4.983a2.8,2.8,0,0,0-2.676.731l-4.689,4.689a3.471,3.471,0,0,0-1.025,2.473v4.115h-.7a.7.7,0,0,0-.7.7v4.4a.7.7,0,0,0,.7.7h9.788a.7.7,0,0,0,.7-.7v-4.4a.7.7,0,0,0-.7-.7h-.7v-.33a.7.7,0,0,1,.2-.494l4.364-4.364a3.474,3.474,0,0,0,1.024-2.472V148.8A2.8,2.8,0,0,0,304.585,146Zm-2.8,24.191H293.4v-3.006h8.39Zm4.2-12.065a2.085,2.085,0,0,1-.615,1.484L301,163.973a2.112,2.112,0,0,0-.615,1.483v.33H294.8v-4.115a2.082,2.082,0,0,1,.615-1.484L300.1,155.5a1.4,1.4,0,0,1,1.919-.054l.012.01c.016.014.031.028.046.043a1.4,1.4,0,0,1,0,1.977L298.6,160.95a.7.7,0,1,0,.989.989l3.474-3.474a2.795,2.795,0,0,0,.12-3.826V148.8a1.4,1.4,0,1,1,2.8,0Z" transform="translate(-292 -146)" fill="#616161"/>
    </g>
  </g>
  <g id="Group_34" data-name="Group 34" transform="translate(0 10.208)">
    <g id="Group_33" data-name="Group 33">
      <path id="Path_20" data-name="Path 20" d="M14.682,165.786h-.7v-4.115a3.471,3.471,0,0,0-1.024-2.472L8.27,154.51a2.8,2.8,0,0,0-2.677-.731V148.8A2.8,2.8,0,0,0,0,148.8v9.329A3.474,3.474,0,0,0,1.024,160.6l4.364,4.364a.7.7,0,0,1,.2.494v.33h-.7a.7.7,0,0,0-.7.7v4.4a.7.7,0,0,0,.7.7h9.788a.7.7,0,0,0,.7-.7v-4.4A.7.7,0,0,0,14.682,165.786ZM2.013,159.609a2.085,2.085,0,0,1-.615-1.484V148.8a1.4,1.4,0,1,1,2.8,0v5.842a2.795,2.795,0,0,0,.12,3.826l3.5,3.5a.7.7,0,1,0,.989-.989l-3.5-3.5a1.4,1.4,0,0,1,0-1.977c.015-.015.03-.03.046-.043l.012-.01a1.4,1.4,0,0,1,1.919.054l4.69,4.69a2.082,2.082,0,0,1,.614,1.483v4.115H6.992v-.33a2.112,2.112,0,0,0-.614-1.483Zm11.97,10.582H5.593v-3.006h8.39Z" transform="translate(0 -146)" fill="#616161"/>
    </g>
  </g>
  <g id="Group_36" data-name="Group 36" transform="translate(7.411)">
    <g id="Group_35" data-name="Group 35">
      <path id="Path_21" data-name="Path 21" d="M116.487,0a10.487,10.487,0,1,0,10.487,10.487A10.5,10.5,0,0,0,116.487,0Zm0,19.577a9.089,9.089,0,1,1,9.089-9.089A9.1,9.1,0,0,1,116.487,19.577Z" transform="translate(-106)" fill="#616161"/>
    </g>
  </g>
  <g id="Group_38" data-name="Group 38" transform="translate(10.208 2.799)">
    <g id="Group_37" data-name="Group 37">
      <path id="Path_22" data-name="Path 22" d="M158.519,41.733a7.744,7.744,0,0,0-6.532-1.52.7.7,0,1,0,.295,1.367,6.351,6.351,0,0,1,5.359,1.241,6.291,6.291,0,1,1-9.5,1.928.7.7,0,0,0-1.232-.661,7.691,7.691,0,1,0,11.609-2.355Z" transform="translate(-146 -40.031)" fill="#616161"/>
    </g>
  </g>
</svg>
